%YAML 1.1
%TAG !u! tag:unity3d.com,2011:
--- !u!114 &11400000
MonoBehaviour:
  m_ObjectHideFlags: 0
  m_CorrespondingSourceObject: {fileID: 0}
  m_PrefabInstance: {fileID: 0}
  m_PrefabAsset: {fileID: 0}
  m_GameObject: {fileID: 0}
  m_Enabled: 1
  m_EditorHideFlags: 0
  m_Script: {fileID: 11500000, guid: 9d1514134bc4fbd41bb739b1b9a49231, type: 3}
  m_Name: Ground
  m_EditorClassIdentifier: 
  m_DefaultSprite: {fileID: -6241751933748599751, guid: 5d5cf36b89ff08148bbcbaa5ebe46dad,
    type: 3}
  m_DefaultGameObject: {fileID: 0}
  m_DefaultColliderType: 1
  m_TilingRules:
  - m_Neighbors: 0000000002000000000000000100000001000000000000000000000000000000
    m_Sprites:
    - {fileID: -4770394049626932388, guid: 5d5cf36b89ff08148bbcbaa5ebe46dad, type: 3}
    m_GameObject: {fileID: 0}
    m_AnimationSpeed: 1
    m_PerlinScale: 0.5
    m_RuleTransform: 0
    m_Output: 0
    m_ColliderType: 1
    m_RandomTransform: 0
  - m_Neighbors: 0000000002000000000000000100000002000000000000000000000000000000
    m_Sprites:
    - {fileID: 6845656493985592992, guid: 5d5cf36b89ff08148bbcbaa5ebe46dad, type: 3}
    m_GameObject: {fileID: 0}
    m_AnimationSpeed: 1
    m_PerlinScale: 0.5
    m_RuleTransform: 0
    m_Output: 0
    m_ColliderType: 1
    m_RandomTransform: 0
  - m_Neighbors: 0000000001000000000000000200000001000000000000000000000000000000
    m_Sprites:
    - {fileID: 3882059176600072632, guid: 5d5cf36b89ff08148bbcbaa5ebe46dad, type: 3}
    m_GameObject: {fileID: 0}
    m_AnimationSpeed: 1
    m_PerlinScale: 0.5
    m_RuleTransform: 0
    m_Output: 0
    m_ColliderType: 1
    m_RandomTransform: 0
  - m_Neighbors: 0000000001000000000000000100000001000000000000000000000000000000
    m_Sprites:
    - {fileID: -8671101641474395375, guid: 5d5cf36b89ff08148bbcbaa5ebe46dad, type: 3}
    m_GameObject: {fileID: 0}
    m_AnimationSpeed: 1
    m_PerlinScale: 0.5
    m_RuleTransform: 0
    m_Output: 0
    m_ColliderType: 1
    m_RandomTransform: 0
  - m_Neighbors: 0000000001000000000000000100000002000000000000000000000000000000
    m_Sprites:
    - {fileID: -2772811772574994310, guid: 5d5cf36b89ff08148bbcbaa5ebe46dad, type: 3}
    m_GameObject: {fileID: 0}
    m_AnimationSpeed: 1
    m_PerlinScale: 0.5
    m_RuleTransform: 0
    m_Output: 0
    m_ColliderType: 1
    m_RandomTransform: 0
